[2022-01-11 14:11:10] - Rejected bean name 'org.springframework.boot.autoconfigure.aop.AopAutoConfiguration$JdkDynamicAutoProxyConfiguration': no URL paths identified
[2022-01-11 14:11:10] - Rejected bean name 'org.springframework.aop.config.internalAutoProxyCreator': no URL paths identified
[2022-01-11 14:11:10] - Rejected bean name 'org.springframework.boot.autoconfigure.aop.AopAutoConfiguration': no URL paths identified
[2022-01-11 14:11:10] - Rejected bean name 'org.springframework.boot.autoconfigure.transaction.jta.JtaAutoConfiguration': no URL paths identified
[2022-01-11 14:11:10] - Rejected bean name 'spring.jta-org.springframework.boot.autoconfigure.transaction.jta.JtaProperties': no URL paths identified
[2022-01-11 14:11:10] - Rejected bean name 'org.springframework.boot.autoconfigure.jdbc.DataSourceConfiguration$Tomcat': no URL paths identified
[2022-01-11 14:11:10] - Rejected bean name 'dataSource': no URL paths identified
[2022-01-11 14:11:10] - Rejected bean name 'org.springframework.boot.autoconfigure.jdbc.DataSourceAutoConfiguration$PooledDataSourceConfiguration': no URL paths identified
[2022-01-11 14:11:10] - Rejected bean name 'org.springframework.boot.autoconfigure.jdbc.metadata.DataSourcePoolMetadataProvidersConfiguration$TomcatDataSourcePoolMetadataProviderConfiguration': no URL paths identified
[2022-01-11 14:11:10] - Rejected bean name 'tomcatPoolDataSourceMetadataProvider': no URL paths identified
[2022-01-11 14:11:10] - Rejected bean name 'org.springframework.boot.autoconfigure.jdbc.metadata.DataSourcePoolMetadataProvidersConfiguration': no URL paths identified
[2022-01-11 14:11:10] - Rejected bean name 'org.springframework.boot.autoconfigure.jdbc.DataSourceAutoConfiguration': no URL paths identified
[2022-01-11 14:11:10] - Rejected bean name 'dataSourceInitializer': no URL paths identified
[2022-01-11 14:11:10] - Rejected bean name 'spring.datasource-org.springframework.boot.autoconfigure.jdbc.DataSourceProperties': no URL paths identified
[2022-01-11 14:11:10] - Rejected bean name 'dataSourceInitializerPostProcessor': no URL paths identified
[2022-01-11 14:11:10] - Rejected bean name 'org.springframework.boot.autoconfigure.orm.jpa.JpaBaseConfiguration$JpaWebConfiguration$JpaWebMvcConfiguration': no URL paths identified
[2022-01-11 14:11:10] - Rejected bean name 'openEntityManagerInViewInterceptor': no URL paths identified
[2022-01-11 14:11:10] - Rejected bean name 'org.springframework.boot.autoconfigure.orm.jpa.JpaBaseConfiguration$JpaWebConfiguration': no URL paths identified
[2022-01-11 14:11:10] - Rejected bean name 'org.springframework.boot.autoconfigure.orm.jpa.HibernateJpaAutoConfiguration': no URL paths identified
[2022-01-11 14:11:10] - Rejected bean name 'transactionManager': no URL paths identified
[2022-01-11 14:11:10] - Rejected bean name 'jpaVendorAdapter': no URL paths identified
[2022-01-11 14:11:10] - Rejected bean name 'entityManagerFactoryBuilder': no URL paths identified
[2022-01-11 14:11:10] - Rejected bean name 'entityManagerFactory': no URL paths identified
[2022-01-11 14:11:10] - Rejected bean name 'spring.jpa-org.springframework.boot.autoconfigure.orm.jpa.JpaProperties': no URL paths identified
[2022-01-11 14:11:10] - Rejected bean name 'dataSourceInitializedPublisher': no URL paths identified
[2022-01-11 14:11:10] - Rejected bean name 'org.springframework.boot.autoconfigure.context.ConfigurationPropertiesAutoConfiguration': no URL paths identified
[2022-01-11 14:11:10] - Rejected bean name 'org.springframework.boot.autoconfigure.dao.PersistenceExceptionTranslationAutoConfiguration': no URL paths identified
[2022-01-11 14:11:10] - Rejected bean name 'persistenceExceptionTranslationPostProcessor': no URL paths identified
[2022-01-11 14:11:10] - Rejected bean name 'org.springframework.boot.autoconfigure.data.jpa.JpaRepositoriesAutoConfiguration': no URL paths identified
[2022-01-11 14:11:10] - Rejected bean name 'emBeanDefinitionRegistrarPostProcessor': no URL paths identified
[2022-01-11 14:11:10] - Rejected bean name 'jpaMappingContext': no URL paths identified
[2022-01-11 14:11:10] - Rejected bean name 'jpaContext': no URL paths identified
[2022-01-11 14:11:10] - Rejected bean name 'paymentRepository': no URL paths identified
[2022-01-11 14:11:10] - Rejected bean name 'productRepository': no URL paths identified
[2022-01-11 14:11:10] - Rejected bean name 'userRepository': no URL paths identified
[2022-01-11 14:11:10] - Rejected bean name 'cartRepository': no URL paths identified
[2022-01-11 14:11:10] - Rejected bean name 'categoryRepository': no URL paths identified
[2022-01-11 14:11:10] - Rejected bean name 'cardDetailsRepository': no URL paths identified
[2022-01-11 14:11:10] - Rejected bean name 'orderTableRepository': no URL paths identified
[2022-01-11 14:11:10] - Rejected bean name 'org.springframework.boot.autoconfigure.web.HttpMessageConvertersAutoConfiguration$StringHttpMessageConverterConfiguration': no URL paths identified
[2022-01-11 14:11:10] - Rejected bean name 'stringHttpMessageConverter': no URL paths identified
[2022-01-11 14:11:10] - Rejected bean name 'spring.http.encoding-org.springframework.boot.autoconfigure.web.HttpEncodingProperties': no URL paths identified
[2022-01-11 14:11:10] - Rejected bean name 'org.springframework.boot.autoconfigure.web.JacksonHttpMessageConvertersConfiguration$MappingJackson2HttpMessageConverterConfiguration': no URL paths identified
[2022-01-11 14:11:10] - Rejected bean name 'mappingJackson2HttpMessageConverter': no URL paths identified
[2022-01-11 14:11:10] - Rejected bean name 'org.springframework.boot.autoconfigure.web.JacksonHttpMessageConvertersConfiguration': no URL paths identified
[2022-01-11 14:11:10] - Rejected bean name 'org.springframework.boot.autoconfigure.web.HttpMessageConvertersAutoConfiguration': no URL paths identified
[2022-01-11 14:11:10] - Rejected bean name 'messageConverters': no URL paths identified
[2022-01-11 14:11:10] - Rejected bean name 'org.springframework.data.web.config.ProjectingArgumentResolverRegistrar': no URL paths identified
[2022-01-11 14:11:10] - Rejected bean name 'projectingArgumentResolverBeanPostProcessor': no URL paths identified
[2022-01-11 14:11:10] - Rejected bean name 'org.springframework.data.web.config.SpringDataWebConfiguration': no URL paths identified
[2022-01-11 14:11:10] - Rejected bean name 'pageableResolver': no URL paths identified
[2022-01-11 14:11:10] - Rejected bean name 'sortResolver': no URL paths identified
[2022-01-11 14:11:10] - Rejected bean name 'org.springframework.data.web.config.SpringDataJacksonConfiguration': no URL paths identified
[2022-01-11 14:11:10] - Rejected bean name 'jacksonGeoModule': no URL paths identified
[2022-01-11 14:11:10] - Rejected bean name 'org.springframework.boot.autoconfigure.data.web.SpringDataWebAutoConfiguration': no URL paths identified
[2022-01-11 14:11:10] - Rejected bean name 'org.springframework.boot.autoconfigure.security.SpringBootWebSecurityConfiguration$ApplicationWebSecurityConfigurerAdapter': no URL paths identified
[2022-01-11 14:11:10] - Rejected bean name 'org.springframework.security.config.annotation.configuration.ObjectPostProcessorConfiguration': no URL paths identified
[2022-01-11 14:11:10] - Rejected bean name 'objectPostProcessor': no URL paths identified
[2022-01-11 14:11:10] - Rejected bean name 'org.springframework.security.config.annotation.authentication.configuration.AuthenticationConfiguration': no URL paths identified
[2022-01-11 14:11:10] - Rejected bean name 'authenticationManagerBuilder': no URL paths identified
[2022-01-11 14:11:10] - Rejected bean name 'enableGlobalAuthenticationAutowiredConfigurer': no URL paths identified
[2022-01-11 14:11:10] - Rejected bean name 'initializeUserDetailsBeanManagerConfigurer': no URL paths identified
[2022-01-11 14:11:10] - Rejected bean name 'initializeAuthenticationProviderBeanManagerConfigurer': no URL paths identified
[2022-01-11 14:11:10] - Rejected bean name 'org.springframework.security.config.annotation.web.configuration.WebSecurityConfiguration': no URL paths identified
[2022-01-11 14:11:10] - Rejected bean name 'delegatingApplicationListener': no URL paths identified
[2022-01-11 14:11:10] - Rejected bean name 'webSecurityExpressionHandler': no URL paths identified
[2022-01-11 14:11:10] - Rejected bean name 'springSecurityFilterChain': no URL paths identified
[2022-01-11 14:11:10] - Rejected bean name 'privilegeEvaluator': no URL paths identified
[2022-01-11 14:11:10] - Rejected bean name 'autowiredWebSecurityConfigurersIgnoreParents': no URL paths identified
[2022-01-11 14:11:10] - Rejected bean name 'org.springframework.security.config.annotation.web.configuration.WebMvcSecurityConfiguration': no URL paths identified
[2022-01-11 14:11:10] - Rejected bean name 'requestDataValueProcessor': no URL paths identified
[2022-01-11 14:11:10] - Rejected bean name 'org.springframework.boot.autoconfigure.security.SpringBootWebSecurityConfiguration': no URL paths identified
[2022-01-11 14:11:10] - Rejected bean name 'ignoredPathsWebSecurityConfigurerAdapter': no URL paths identified
[2022-01-11 14:11:10] - Rejected bean name 'defaultIgnoredRequestsCustomizer': no URL paths identified
[2022-01-11 14:11:10] - Rejected bean name 'org.springframework.boot.autoconfigure.security.AuthenticationManagerConfiguration': no URL paths identified
[2022-01-11 14:11:10] - Rejected bean name 'authenticationManager': no URL paths identified
[2022-01-11 14:11:10] - Rejected bean name 'springBootAuthenticationConfigurerAdapter': no URL paths identified
[2022-01-11 14:11:10] - Rejected bean name 'authenticationManagerConfigurationListener': no URL paths identified
[2022-01-11 14:11:10] - Rejected bean name 'org.springframework.boot.autoconfigure.security.BootGlobalAuthenticationConfiguration': no URL paths identified
[2022-01-11 14:11:10] - Rejected bean name 'bootGlobalAuthenticationConfigurationAdapter': no URL paths identified
[2022-01-11 14:11:10] - Rejected bean name 'org.springframework.boot.autoconfigure.security.SecurityAutoConfiguration': no URL paths identified
[2022-01-11 14:11:10] - Rejected bean name 'authenticationEventPublisher': no URL paths identified
[2022-01-11 14:11:10] - Rejected bean name 'securityProperties': no URL paths identified
[2022-01-11 14:11:10] - Rejected bean name 'org.springframework.boot.autoconfigure.info.ProjectInfoAutoConfiguration': no URL paths identified
[2022-01-11 14:11:10] - Rejected bean name 'spring.info-org.springframework.boot.autoconfigure.info.ProjectInfoProperties': no URL paths identified
[2022-01-11 14:11:10] - Rejected bean name 'org.springframework.boot.autoconfigure.jdbc.DataSourceTransactionManagerAutoConfiguration$DataSourceTransactionManagerConfiguration': no URL paths identified
[2022-01-11 14:11:10] - Rejected bean name 'org.springframework.boot.autoconfigure.jdbc.DataSourceTransactionManagerAutoConfiguration': no URL paths identified
[2022-01-11 14:11:10] - Rejected bean name 'org.springframework.boot.autoconfigure.jdbc.JdbcTemplateAutoConfiguration': no URL paths identified
[2022-01-11 14:11:10] - Rejected bean name 'jdbcTemplate': no URL paths identified
[2022-01-11 14:11:10] - Rejected bean name 'namedParameterJdbcTemplate': no URL paths identified
[2022-01-11 14:11:10] - Rejected bean name 'org.springframework.transaction.annotation.ProxyTransactionManagementConfiguration': no URL paths identified
[2022-01-11 14:11:10] - Rejected bean name 'org.springframework.transaction.config.internalTransactionAdvisor': no URL paths identified
[2022-01-11 14:11:10] - Rejected bean name 'transactionAttributeSource': no URL paths identified
[2022-01-11 14:11:10] - Rejected bean name 'transactionInterceptor': no URL paths identified
[2022-01-11 14:11:10] - Rejected bean name 'org.springframework.transaction.config.internalTransactionalEventListenerFactory': no URL paths identified
[2022-01-11 14:11:10] - Rejected bean name 'org.springframework.boot.autoconfigure.transaction.TransactionAutoConfiguration$EnableTransactionManagementConfiguration$CglibAutoProxyConfiguration': no URL paths identified
[2022-01-11 14:11:10] - Rejected bean name 'org.springframework.boot.autoconfigure.transaction.TransactionAutoConfiguration$EnableTransactionManagementConfiguration': no URL paths identified
[2022-01-11 14:11:10] - Rejected bean name 'org.springframework.boot.autoconfigure.transaction.TransactionAutoConfiguration$TransactionTemplateConfiguration': no URL paths identified
[2022-01-11 14:11:10] - Rejected bean name 'transactionTemplate': no URL paths identified
[2022-01-11 14:11:10] - Rejected bean name 'org.springframework.boot.autoconfigure.transaction.TransactionAutoConfiguration': no URL paths identified
[2022-01-11 14:11:10] - Rejected bean name 'platformTransactionManagerCustomizers': no URL paths identified
[2022-01-11 14:11:10] - Rejected bean name 'spring.transaction-org.springframework.boot.autoconfigure.transaction.TransactionProperties': no URL paths identified
[2022-01-11 14:11:10] - Rejected bean name 'org.springframework.boot.autoconfigure.security.SecurityFilterAutoConfiguration': no URL paths identified
[2022-01-11 14:11:10] - Rejected bean name 'securityFilterChainRegistration': no URL paths identified
[2022-01-11 14:11:10] - Rejected bean name 'org.springframework.boot.autoconfigure.web.HttpEncodingAutoConfiguration': no URL paths identified
[2022-01-11 14:11:10] - Rejected bean name 'characterEncodingFilter': no URL paths identified
[2022-01-11 14:11:10] - Rejected bean name 'localeCharsetMappingsCustomizer': no URL paths identified
[2022-01-11 14:11:10] - Rejected bean name 'org.springframework.boot.autoconfigure.web.MultipartAutoConfiguration': no URL paths identified
[2022-01-11 14:11:10] - Rejected bean name 'multipartConfigElement': no URL paths identified
[2022-01-11 14:11:10] - Rejected bean name 'multipartResolver': no URL paths identified
[2022-01-11 14:11:10] - Rejected bean name 'spring.http.multipart-org.springframework.boot.autoconfigure.web.MultipartProperties': no URL paths identified
[2022-01-11 14:11:10] - Rejected bean name 'org.springframework.boot.autoconfigure.web.ServerPropertiesAutoConfiguration': no URL paths identified
[2022-01-11 14:11:10] - Rejected bean name 'serverProperties': no URL paths identified
[2022-01-11 14:11:10] - Rejected bean name 'duplicateServerPropertiesDetector': no URL paths identified
[2022-01-11 14:11:10] - Rejected bean name 'org.springframework.boot.autoconfigure.web.WebClientAutoConfiguration$RestTemplateConfiguration': no URL paths identified
[2022-01-11 14:11:10] - Rejected bean name 'restTemplateBuilder': no URL paths identified
[2022-01-11 14:11:10] - Rejected bean name 'org.springframework.boot.autoconfigure.web.WebClientAutoConfiguration': no URL paths identified
[2022-01-11 14:11:10] - Rejected bean name 'org.springframework.orm.jpa.SharedEntityManagerCreator#0': no URL paths identified
[2022-01-11 14:11:10] - Rejected bean name 'autoConfigurationReport': no URL paths identified
[2022-01-11 14:11:10] - Rejected bean name 'springApplicationArguments': no URL paths identified
[2022-01-11 14:11:10] - Rejected bean name 'springBootBanner': no URL paths identified
[2022-01-11 14:11:10] - Rejected bean name 'springBootLoggingSystem': no URL paths identified
[2022-01-11 14:11:10] - Rejected bean name 'environment': no URL paths identified
[2022-01-11 14:11:10] - Rejected bean name 'systemProperties': no URL paths identified
[2022-01-11 14:11:10] - Rejected bean name 'systemEnvironment': no URL paths identified
[2022-01-11 14:11:10] - Rejected bean name 'org.springframework.context.annotation.ConfigurationClassPostProcessor.importRegistry': no URL paths identified
[2022-01-11 14:11:10] - Rejected bean name 'messageSource': no URL paths identified
[2022-01-11 14:11:10] - Rejected bean name 'applicationEventMulticaster': no URL paths identified
[2022-01-11 14:11:10] - Rejected bean name 'servletContext': no URL paths identified
[2022-01-11 14:11:10] - Rejected bean name 'contextParameters': no URL paths identified
[2022-01-11 14:11:10] - Rejected bean name 'contextAttributes': no URL paths identified
[2022-01-11 14:11:10] - Returning cached instance of singleton bean 'org.springframework.transaction.config.internalTransactionAdvisor'
[2022-01-11 14:11:10] - Returning cached instance of singleton bean 'org.springframework.transaction.config.internalTransactionAdvisor'
[2022-01-11 14:11:10] - Finished creating instance of bean 'beanNameHandlerMapping'
[2022-01-11 14:11:10] - Creating shared instance of singleton bean 'resourceHandlerMapping'
[2022-01-11 14:11:10] - Creating instance of bean 'resourceHandlerMapping'
[2022-01-11 14:11:10] - Returning cached instance of singleton bean 'org.springframework.transaction.config.internalTransactionAdvisor'
[2022-01-11 14:11:10] - Returning cached instance of singleton bean 'org.springframework.boot.autoconfigure.web.WebMvcAutoConfiguration$EnableWebMvcConfiguration'
[2022-01-11 14:11:10] - Returning cached instance of singleton bean 'mvcContentNegotiationManager'
[2022-01-11 14:11:10] - Returning cached instance of singleton bean 'mvcUrlPathHelper'
[2022-01-11 14:11:10] - Returning cached instance of singleton bean 'mvcPathMatcher'
[2022-01-11 14:11:10] - Returning cached instance of singleton bean 'mvcUrlPathHelper'
[2022-01-11 14:11:10] - Returning cached instance of singleton bean 'mvcResourceUrlProvider'
[2022-01-11 14:11:10] - Eagerly caching bean 'resourceHandlerMapping' to allow for resolving potential circular references
[2022-01-11 14:11:10] - Mapped URL path [/webjars/**] onto handler of type [class org.springframework.web.servlet.resource.ResourceHttpRequestHandler]
[2022-01-11 14:11:10] - Mapped URL path [/**] onto handler of type [class org.springframework.web.servlet.resource.ResourceHttpRequestHandler]
[2022-01-11 14:11:10] - Returning cached instance of singleton bean 'org.springframework.transaction.config.internalTransactionAdvisor'
[2022-01-11 14:11:10] - Returning cached instance of singleton bean 'org.springframework.transaction.config.internalTransactionAdvisor'
[2022-01-11 14:11:10] - Finished creating instance of bean 'resourceHandlerMapping'
[2022-01-11 14:11:10] - Returning cached instance of singleton bean 'mvcResourceUrlProvider'
[2022-01-11 14:11:10] - Creating shared instance of singleton bean 'defaultServletHandlerMapping'
[2022-01-11 14:11:10] - Creating instance of bean 'defaultServletHandlerMapping'
[2022-01-11 14:11:10] - Returning cached instance of singleton bean 'org.springframework.transaction.config.internalTransactionAdvisor'
[2022-01-11 14:11:10] - Returning cached instance of singleton bean 'org.springframework.boot.autoconfigure.web.WebMvcAutoConfiguration$EnableWebMvcConfiguration'
[2022-01-11 14:11:10] - Eagerly caching bean 'defaultServletHandlerMapping' to allow for resolving potential circular references
[2022-01-11 14:11:10] - Returning cached instance of singleton bean 'org.springframework.transaction.config.internalTransactionAdvisor'
[2022-01-11 14:11:10] - Returning cached instance of singleton bean 'org.springframework.transaction.config.internalTransactionAdvisor'
[2022-01-11 14:11:10] - Finished creating instance of bean 'defaultServletHandlerMapping'
[2022-01-11 14:11:10] - Returning cached instance of singleton bean 'mvcConversionService'
[2022-01-11 14:11:10] - Creating shared instance of singleton bean 'mvcUriComponentsContributor'
[2022-01-11 14:11:10] - Creating instance of bean 'mvcUriComponentsContributor'
[2022-01-11 14:11:10] - Returning cached instance of singleton bean 'org.springframework.transaction.config.internalTransactionAdvisor'
[2022-01-11 14:11:10] - Returning cached instance of singleton bean 'org.springframework.boot.autoconfigure.web.WebMvcAutoConfiguration$EnableWebMvcConfiguration'
[2022-01-11 14:11:10] - Returning cached instance of singleton bean 'requestMappingHandlerAdapter'
[2022-01-11 14:11:10] - Returning cached instance of singleton bean 'mvcConversionService'
[2022-01-11 14:11:10] - Eagerly caching bean 'mvcUriComponentsContributor' to allow for resolving potential circular references
[2022-01-11 14:11:10] - Returning cached instance of singleton bean 'org.springframework.transaction.config.internalTransactionAdvisor'
[2022-01-11 14:11:10] - Returning cached instance of singleton bean 'org.springframework.transaction.config.internalTransactionAdvisor'
[2022-01-11 14:11:10] - Finished creating instance of bean 'mvcUriComponentsContributor'
[2022-01-11 14:11:10] - Creating shared instance of singleton bean 'httpRequestHandlerAdapter'
[2022-01-11 14:11:10] - Creating instance of bean 'httpRequestHandlerAdapter'
[2022-01-11 14:11:10] - Returning cached instance of singleton bean 'org.springframework.transaction.config.internalTransactionAdvisor'
[2022-01-11 14:11:10] - Returning cached instance of singleton bean 'org.springframework.boot.autoconfigure.web.WebMvcAutoConfiguration$EnableWebMvcConfiguration'
[2022-01-11 14:11:10] - Eagerly caching bean 'httpRequestHandlerAdapter' to allow for resolving potential circular references
[2022-01-11 14:11:10] - Returning cached instance of singleton bean 'org.springframework.transaction.config.internalTransactionAdvisor'
[2022-01-11 14:11:10] - Returning cached instance of singleton bean 'org.springframework.transaction.config.internalTransactionAdvisor'
[2022-01-11 14:11:10] - Finished creating instance of bean 'httpRequestHandlerAdapter'
[2022-01-11 14:11:10] - Creating shared instance of singleton bean 'simpleControllerHandlerAdapter'
[2022-01-11 14:11:10] - Creating instance of bean 'simpleControllerHandlerAdapter'
[2022-01-11 14:11:10] - Returning cached instance of singleton bean 'org.springframework.transaction.config.internalTransactionAdvisor'
[2022-01-11 14:11:10] - Returning cached instance of singleton bean 'org.springframework.boot.autoconfigure.web.WebMvcAutoConfiguration$EnableWebMvcConfiguration'
[2022-01-11 14:11:10] - Eagerly caching bean 'simpleControllerHandlerAdapter' to allow for resolving potential circular references
[2022-01-11 14:11:10] - Returning cached instance of singleton bean 'org.springframework.transaction.config.internalTransactionAdvisor'
[2022-01-11 14:11:10] - Returning cached instance of singleton bean 'org.springframework.transaction.config.internalTransactionAdvisor'
[2022-01-11 14:11:10] - Finished creating instance of bean 'simpleControllerHandlerAdapter'
[2022-01-11 14:11:10] - Creating shared instance of singleton bean 'handlerExceptionResolver'
[2022-01-11 14:11:10] - Creating instance of bean 'handlerExceptionResolver'
[2022-01-11 14:11:10] - Returning cached instance of singleton bean 'org.springframework.transaction.config.internalTransactionAdvisor'
[2022-01-11 14:11:10] - Returning cached instance of singleton bean 'org.springframework.boot.autoconfigure.web.WebMvcAutoConfiguration$EnableWebMvcConfiguration'
[2022-01-11 14:11:10] - Returning cached instance of singleton bean 'mvcContentNegotiationManager'
[2022-01-11 14:11:10] - Looking for exception mappings: org.springframework.boot.context.embedded.AnnotationConfigEmbeddedWebApplicationContext@3b2cf7ab: startup date [Tue Jan 11 14:11:02 IST 2022]; root of context hierarchy
[2022-01-11 14:11:10] - Detected @ExceptionHandler methods in contollerAdvice
[2022-01-11 14:11:10] - Eagerly caching bean 'handlerExceptionResolver' to allow for resolving potential circular references
[2022-01-11 14:11:10] - Returning cached instance of singleton bean 'org.springframework.transaction.config.internalTransactionAdvisor'
[2022-01-11 14:11:10] - Returning cached instance of singleton bean 'org.springframework.transaction.config.internalTransactionAdvisor'
[2022-01-11 14:11:10] - Finished creating instance of bean 'handlerExceptionResolver'
[2022-01-11 14:11:10] - Creating shared instance of singleton bean 'mvcViewResolver'
[2022-01-11 14:11:10] - Creating instance of bean 'mvcViewResolver'
[2022-01-11 14:11:10] - Returning cached instance of singleton bean 'org.springframework.transaction.config.internalTransactionAdvisor'
[2022-01-11 14:11:10] - Returning cached instance of singleton bean 'org.springframework.boot.autoconfigure.web.WebMvcAutoConfiguration$EnableWebMvcConfiguration'
[2022-01-11 14:11:10] - Returning cached instance of singleton bean 'mvcContentNegotiationManager'
[2022-01-11 14:11:10] - Eagerly caching bean 'mvcViewResolver' to allow for resolving potential circular references
[2022-01-11 14:11:10] - Invoking afterPropertiesSet() on bean with name 'mvcViewResolver'
[2022-01-11 14:11:10] - Returning cached instance of singleton bean 'org.springframework.transaction.config.internalTransactionAdvisor'
[2022-01-11 14:11:10] - Returning cached instance of singleton bean 'org.springframework.transaction.config.internalTransactionAdvisor'
[2022-01-11 14:11:10] - Finished creating instance of bean 'mvcViewResolver'
[2022-01-11 14:11:10] - Creating shared instance of singleton bean 'org.springframework.boot.autoconfigure.web.WebMvcAutoConfiguration$WebMvcAutoConfigurationAdapter$FaviconConfiguration'
[2022-01-11 14:11:10] - Creating instance of bean 'org.springframework.boot.autoconfigure.web.WebMvcAutoConfiguration$WebMvcAutoConfigurationAdapter$FaviconConfiguration'
[2022-01-11 14:11:10] - Returning cached instance of singleton bean 'org.springframework.transaction.config.internalTransactionAdvisor'
[2022-01-11 14:11:10] - Cannot find '.class' file for class [class org.springframework.boot.autoconfigure.web.WebMvcAutoConfiguration$WebMvcAutoConfigurationAdapter$FaviconConfiguration$$EnhancerBySpringCGLIB$$a9fa4e22] - unable to determine constructor/method parameter names
[2022-01-11 14:11:10] - Returning cached instance of singleton bean 'spring.resources-org.springframework.boot.autoconfigure.web.ResourceProperties'
[2022-01-11 14:11:10] - Autowiring by type from bean name 'org.springframework.boot.autoconfigure.web.WebMvcAutoConfiguration$WebMvcAutoConfigurationAdapter$FaviconConfiguration' via constructor to bean named 'spring.resources-org.springframework.boot.autoconfigure.web.ResourceProperties'
[2022-01-11 14:11:10] - Eagerly caching bean 'org.springframework.boot.autoconfigure.web.WebMvcAutoConfiguration$WebMvcAutoConfigurationAdapter$FaviconConfiguration' to allow for resolving potential circular references
[2022-01-11 14:11:10] - Returning cached instance of singleton bean 'org.springframework.transaction.config.internalTransactionAdvisor'
[2022-01-11 14:11:10] - Returning cached instance of singleton bean 'org.springframework.transaction.config.internalTransactionAdvisor'
[2022-01-11 14:11:10] - Finished creating instance of bean 'org.springframework.boot.autoconfigure.web.WebMvcAutoConfiguration$WebMvcAutoConfigurationAdapter$FaviconConfiguration'
[2022-01-11 14:11:10] - Creating shared instance of singleton bean 'faviconHandlerMapping'
[2022-01-11 14:11:10] - Creating instance of bean 'faviconHandlerMapping'
[2022-01-11 14:11:10] - Returning cached instance of singleton bean 'org.springframework.transaction.config.internalTransactionAdvisor'
[2022-01-11 14:11:10] - Returning cached instance of singleton bean 'org.springframework.boot.autoconfigure.web.WebMvcAutoConfiguration$WebMvcAutoConfigurationAdapter$FaviconConfiguration'
[2022-01-11 14:11:10] - Creating shared instance of singleton bean 'faviconRequestHandler'
[2022-01-11 14:11:10] - Creating instance of bean 'faviconRequestHandler'
[2022-01-11 14:11:10] - Returning cached instance of singleton bean 'org.springframework.transaction.config.internalTransactionAdvisor'
[2022-01-11 14:11:10] - Returning cached instance of singleton bean 'org.springframework.boot.autoconfigure.web.WebMvcAutoConfiguration$WebMvcAutoConfigurationAdapter$FaviconConfiguration'
[2022-01-11 14:11:10] - Eagerly caching bean 'faviconRequestHandler' to allow for resolving potential circular references
[2022-01-11 14:11:10] - Invoking afterPropertiesSet() on bean with name 'faviconRequestHandler'
[2022-01-11 14:11:10] - Returning cached instance of singleton bean 'org.springframework.transaction.config.internalTransactionAdvisor'
[2022-01-11 14:11:10] - Returning cached instance of singleton bean 'org.springframework.transaction.config.internalTransactionAdvisor'
[2022-01-11 14:11:10] - Finished creating instance of bean 'faviconRequestHandler'
[2022-01-11 14:11:10] - Eagerly caching bean 'faviconHandlerMapping' to allow for resolving potential circular references
[2022-01-11 14:11:10] - Mapped URL path [/**/favicon.ico] onto handler of type [class org.springframework.web.servlet.resource.ResourceHttpRequestHandler]
[2022-01-11 14:11:10] - Returning cached instance of singleton bean 'org.springframework.transaction.config.internalTransactionAdvisor'
[2022-01-11 14:11:10] - Returning cached instance of singleton bean 'org.springframework.transaction.config.internalTransactionAdvisor'
[2022-01-11 14:11:10] - Finished creating instance of bean 'faviconHandlerMapping'
[2022-01-11 14:11:10] - Returning cached instance of singleton bean 'faviconRequestHandler'
[2022-01-11 14:11:10] - Returning cached instance of singleton bean 'org.springframework.boot.autoconfigure.web.WebMvcAutoConfiguration$WebMvcAutoConfigurationAdapter'
[2022-01-11 14:11:10] - Creating shared instance of singleton bean 'defaultViewResolver'
[2022-01-11 14:11:10] - Creating instance of bean 'defaultViewResolver'
[2022-01-11 14:11:10] - Returning cached instance of singleton bean 'org.springframework.transaction.config.internalTransactionAdvisor'
[2022-01-11 14:11:10] - Returning cached instance of singleton bean 'org.springframework.boot.autoconfigure.web.WebMvcAutoConfiguration$WebMvcAutoConfigurationAdapter'
[2022-01-11 14:11:10] - Eagerly caching bean 'defaultViewResolver' to allow for resolving potential circular references
[2022-01-11 14:11:10] - Returning cached instance of singleton bean 'org.springframework.transaction.config.internalTransactionAdvisor'
[2022-01-11 14:11:10] - Returning cached instance of singleton bean 'org.springframework.transaction.config.internalTransactionAdvisor'
[2022-01-11 14:11:10] - Finished creating instance of bean 'defaultViewResolver'
[2022-01-11 14:11:10] - Creating shared instance of singleton bean 'viewResolver'
[2022-01-11 14:11:10] - Creating instance of bean 'viewResolver'
[2022-01-11 14:11:10] - Returning cached instance of singleton bean 'org.springframework.transaction.config.internalTransactionAdvisor'
[2022-01-11 14:11:10] - Returning cached instance of singleton bean 'org.springframework.boot.autoconfigure.web.WebMvcAutoConfiguration$WebMvcAutoConfigurationAdapter'
[2022-01-11 14:11:10] - Autowiring by type from bean name 'viewResolver' via factory method to bean named 'org.springframework.beans.factory.support.DefaultListableBeanFactory@42a48628'
[2022-01-11 14:11:10] - Returning cached instance of singleton bean 'mvcContentNegotiationManager'
[2022-01-11 14:11:10] - Eagerly caching bean 'viewResolver' to allow for resolving potential circular references
[2022-01-11 14:11:10] - Returning cached instance of singleton bean 'beanNameViewResolver'
[2022-01-11 14:11:10] - Returning cached instance of singleton bean 'mvcViewResolver'
[2022-01-11 14:11:10] - Returning cached instance of singleton bean 'defaultViewResolver'
[2022-01-11 14:11:10] - Returning cached instance of singleton bean 'org.springframework.transaction.config.internalTransactionAdvisor'
[2022-01-11 14:11:10] - Returning cached instance of singleton bean 'org.springframework.transaction.config.internalTransactionAdvisor'
